<svg xmlns="http://www.w3.org/2000/svg" width="24" height="17" viewBox="0 0 24 17">
    <defs>
        <clipPath id="a">
            <path data-name="Rectangle 3" fill="none" d="M0 0h24v17H0z"/>
        </clipPath>
    </defs>
    <g data-name="Group 6">
        <g data-name="Group 5" clip-path="url(#a)">
            <path data-name="Path 4"
                  d="M21.18 8.99a9.934 9.934 0 0 1-4.706 6.16c-5.172 3-12.7 2.564-16.475-2.889a6.424 6.424 0 0 0 8.874-.346c-1.788 0-2.248-1.366-.835-2.106a2.949 2.949 0 0 1-2.692-1.233c-.189-.3-.189-.32.119-.548a2.5 2.5 0 0 1 1.284-.4A3.354 3.354 0 0 1 4.22 5.485c-.1-.329-.115-.312.214-.4a6.028 6.028 0 0 1 1.1-.144A3.753 3.753 0 0 1 3.629 2.52c-.157-.864.005-.642.638-.394 2.829 1.107 5.648 2.3 7.318 4.055A12.994 12.994 0 0 1 14.371.993c.807-.86 1.223-1.133.751-.186a4.943 4.943 0 0 1 .742-.52c1.307-.631 1.216-.1.313.465 2.456-.9 2.371.244-.225.815a5.25 5.25 0 0 1 5.032 4.363c.089.408-.017.369.391.442a5.053 5.053 0 0 0 2.514-.113c-.086.608-.875 1-2.1 1.266-.455.1-.548.072 0 .2A8.277 8.277 0 0 0 24 7.876a3.613 3.613 0 0 1-2.82 1.114"
                  fill="#fff"/>
        </g>
    </g>
</svg>